{
  "family": "${service-name}-production",
  "containerDefinitions": [
    {
      "logConfiguration": {
        "logDriver": "awslogs",
        "options": {
          "awslogs-group": "production_${service-name}",
          "awslogs-region": "eu-central-1"
        }
      },
      "portMappings": [
        {
          "hostPort": 0,
          "protocol": "tcp",
          "containerPort": 8443
        }
      ],
      "cpu": 150,
      "environment": [
        {
          "name": "SPRING_PROFILES_ACTIVE",
          "value": "production"
        },
        {
          "name" : "JAVA_OPTIONS",
          "value" : "-XX:+UnlockExperimentalVMOptions -XX:+UseCGroupMemoryLimitForHeap -XX:+UseCompressedOops"
        }
      ],
      "memory": 256,
      "image": "${container-image}",
      "name": "${service-name}",
      "essential": true
    }
  ],
  "volumes": [
    {
      "name": "volume"
    }
  ]
}